(kicad_pcb (version 4) (host pcbnew 4.0.7)

  (general
    (links 4)
    (no_connects 4)
    (area 139.924999 83.924999 160.075001 116.075001)
    (thickness 0.8)
    (drawings 14)
    (tracks 0)
    (zones 0)
    (modules 7)
    (nets 65)
  )

  (page A4)
  (title_block
    (title "IR Receiver")
    (date 2017-03-21)
    (rev 1.0)
    (company "ECE 445")
  )

  (layers
    (0 F.Cu signal)
    (31 B.Cu signal)
    (32 B.Adhes user)
    (33 F.Adhes user)
    (34 B.Paste user)
    (35 F.Paste user)
    (36 B.SilkS user)
    (37 F.SilkS user)
    (38 B.Mask user)
    (39 F.Mask user)
    (40 Dwgs.User user)
    (41 Cmts.User user)
    (42 Eco1.User user)
    (43 Eco2.User user)
    (44 Edge.Cuts user)
    (45 Margin user)
    (46 B.CrtYd user)
    (47 F.CrtYd user)
    (48 B.Fab user)
    (49 F.Fab user)
  )

  (setup
    (last_trace_width 0.25)
    (trace_clearance 0.2)
    (zone_clearance 0.25)
    (zone_45_only no)
    (trace_min 0.16)
    (segment_width 0.2)
    (edge_width 0.15)
    (via_size 0.6)
    (via_drill 0.4)
    (via_min_size 0.4)
    (via_min_drill 0.3)
    (uvia_size 0.3)
    (uvia_drill 0.1)
    (uvias_allowed no)
    (uvia_min_size 0.2)
    (uvia_min_drill 0.1)
    (pcb_text_width 0.3)
    (pcb_text_size 1.5 1.5)
    (mod_edge_width 0.15)
    (mod_text_size 1 1)
    (mod_text_width 0.15)
    (pad_size 5 5)
    (pad_drill 5)
    (pad_to_mask_clearance 0.2)
    (aux_axis_origin 0 0)
    (visible_elements FFFEFF7F)
    (pcbplotparams
      (layerselection 0x00030_80000001)
      (usegerberextensions false)
      (excludeedgelayer true)
      (linewidth 0.100000)
      (plotframeref false)
      (viasonmask false)
      (mode 1)
      (useauxorigin false)
      (hpglpennumber 1)
      (hpglpenspeed 20)
      (hpglpendiameter 15)
      (hpglpenoverlay 2)
      (psnegative false)
      (psa4output false)
      (plotreference true)
      (plotvalue true)
      (plotinvisibletext false)
      (padsonsilk false)
      (subtractmaskfromsilk false)
      (outputformat 1)
      (mirror false)
      (drillshape 1)
      (scaleselection 1)
      (outputdirectory images))
  )

  (net 0 "")
  (net 1 +2V8)
  (net 2 /IR_R)
  (net 3 /IR_L)
  (net 4 GND)
  (net 5 "Net-(U1-Pad2)")
  (net 6 "Net-(U1-Pad3)")
  (net 7 "Net-(U1-Pad4)")
  (net 8 "Net-(U1-Pad7)")
  (net 9 "Net-(U2-Pad2)")
  (net 10 "Net-(U2-Pad3)")
  (net 11 "Net-(U2-Pad4)")
  (net 12 "Net-(U2-Pad7)")
  (net 13 "Net-(D1-Pad2)")
  (net 14 "Net-(D1-Pad1)")
  (net 15 "Net-(D2-Pad2)")
  (net 16 "Net-(D2-Pad1)")
  (net 17 "Net-(U1-Pad1)")
  (net 18 "Net-(U1-Pad5)")
  (net 19 "Net-(U1-Pad6)")
  (net 20 "Net-(U1-Pad8)")
  (net 21 "Net-(U1-Pad9)")
  (net 22 "Net-(U1-Pad10)")
  (net 23 "Net-(U1-Pad11)")
  (net 24 "Net-(U1-Pad12)")
  (net 25 "Net-(U1-Pad13)")
  (net 26 "Net-(U1-Pad14)")
  (net 27 "Net-(U1-Pad15)")
  (net 28 "Net-(U1-Pad16)")
  (net 29 "Net-(U1-Pad17)")
  (net 30 "Net-(U1-Pad18)")
  (net 31 "Net-(U1-Pad19)")
  (net 32 "Net-(U1-Pad20)")
  (net 33 "Net-(U1-Pad21)")
  (net 34 "Net-(U1-Pad22)")
  (net 35 "Net-(U1-Pad23)")
  (net 36 "Net-(U1-Pad24)")
  (net 37 "Net-(U1-Pad25)")
  (net 38 "Net-(U1-Pad26)")
  (net 39 "Net-(U1-Pad27)")
  (net 40 "Net-(U1-Pad28)")
  (net 41 "Net-(U1-Pad29)")
  (net 42 "Net-(U1-Pad30)")
  (net 43 "Net-(U1-Pad31)")
  (net 44 "Net-(U1-Pad32)")
  (net 45 "Net-(U1-Pad33)")
  (net 46 "Net-(U1-Pad34)")
  (net 47 "Net-(U1-Pad35)")
  (net 48 "Net-(U1-Pad36)")
  (net 49 "Net-(U1-Pad37)")
  (net 50 "Net-(U1-Pad38)")
  (net 51 "Net-(U1-Pad39)")
  (net 52 "Net-(U1-Pad40)")
  (net 53 "Net-(U1-Pad41)")
  (net 54 "Net-(U1-Pad42)")
  (net 55 "Net-(U1-Pad43)")
  (net 56 "Net-(U1-Pad44)")
  (net 57 "Net-(U1-Pad45)")
  (net 58 "Net-(U1-Pad46)")
  (net 59 "Net-(U1-Pad47)")
  (net 60 "Net-(U1-Pad48)")
  (net 61 "Net-(U3-Pad2)")
  (net 62 "Net-(U3-Pad3)")
  (net 63 "Net-(U3-Pad4)")
  (net 64 "Net-(U3-Pad7)")

  (net_class Default "This is the default net class."
    (clearance 0.2)
    (trace_width 0.25)
    (via_dia 0.6)
    (via_drill 0.4)
    (uvia_dia 0.3)
    (uvia_drill 0.1)
    (add_net +2V8)
    (add_net /IR_L)
    (add_net /IR_R)
    (add_net GND)
    (add_net "Net-(D1-Pad1)")
    (add_net "Net-(D1-Pad2)")
    (add_net "Net-(D2-Pad1)")
    (add_net "Net-(D2-Pad2)")
    (add_net "Net-(U1-Pad1)")
    (add_net "Net-(U1-Pad10)")
    (add_net "Net-(U1-Pad11)")
    (add_net "Net-(U1-Pad12)")
    (add_net "Net-(U1-Pad13)")
    (add_net "Net-(U1-Pad14)")
    (add_net "Net-(U1-Pad15)")
    (add_net "Net-(U1-Pad16)")
    (add_net "Net-(U1-Pad17)")
    (add_net "Net-(U1-Pad18)")
    (add_net "Net-(U1-Pad19)")
    (add_net "Net-(U1-Pad2)")
    (add_net "Net-(U1-Pad20)")
    (add_net "Net-(U1-Pad21)")
    (add_net "Net-(U1-Pad22)")
    (add_net "Net-(U1-Pad23)")
    (add_net "Net-(U1-Pad24)")
    (add_net "Net-(U1-Pad25)")
    (add_net "Net-(U1-Pad26)")
    (add_net "Net-(U1-Pad27)")
    (add_net "Net-(U1-Pad28)")
    (add_net "Net-(U1-Pad29)")
    (add_net "Net-(U1-Pad3)")
    (add_net "Net-(U1-Pad30)")
    (add_net "Net-(U1-Pad31)")
    (add_net "Net-(U1-Pad32)")
    (add_net "Net-(U1-Pad33)")
    (add_net "Net-(U1-Pad34)")
    (add_net "Net-(U1-Pad35)")
    (add_net "Net-(U1-Pad36)")
    (add_net "Net-(U1-Pad37)")
    (add_net "Net-(U1-Pad38)")
    (add_net "Net-(U1-Pad39)")
    (add_net "Net-(U1-Pad4)")
    (add_net "Net-(U1-Pad40)")
    (add_net "Net-(U1-Pad41)")
    (add_net "Net-(U1-Pad42)")
    (add_net "Net-(U1-Pad43)")
    (add_net "Net-(U1-Pad44)")
    (add_net "Net-(U1-Pad45)")
    (add_net "Net-(U1-Pad46)")
    (add_net "Net-(U1-Pad47)")
    (add_net "Net-(U1-Pad48)")
    (add_net "Net-(U1-Pad5)")
    (add_net "Net-(U1-Pad6)")
    (add_net "Net-(U1-Pad7)")
    (add_net "Net-(U1-Pad8)")
    (add_net "Net-(U1-Pad9)")
    (add_net "Net-(U2-Pad2)")
    (add_net "Net-(U2-Pad3)")
    (add_net "Net-(U2-Pad4)")
    (add_net "Net-(U2-Pad7)")
    (add_net "Net-(U3-Pad2)")
    (add_net "Net-(U3-Pad3)")
    (add_net "Net-(U3-Pad4)")
    (add_net "Net-(U3-Pad7)")
  )

  (net_class Tight ""
    (clearance 0.16)
    (trace_width 0.16)
    (via_dia 0.5)
    (via_drill 0.3)
    (uvia_dia 0.3)
    (uvia_drill 0.1)
  )

  (module bcan:TSOP572xx (layer F.Cu) (tedit 5A53FA22) (tstamp 58D177A4)
    (at 142.625 100)
    (path /58D689A4)
    (fp_text reference U2 (at 0 0) (layer F.SilkS)
      (effects (font (size 1 1) (thickness 0.15)))
    )
    (fp_text value TSOP57238 (at 0 3) (layer F.Fab)
      (effects (font (size 1 1) (thickness 0.15)))
    )
    (fp_line (start -2.4 2.2) (end -2.4 -2.2) (layer F.CrtYd) (width 0.05))
    (fp_line (start 2.4 2.2) (end -2.4 2.2) (layer F.CrtYd) (width 0.05))
    (fp_line (start 2.4 -2.2) (end 2.4 2.2) (layer F.CrtYd) (width 0.05))
    (fp_line (start -2.4 -2.2) (end 2.4 -2.2) (layer F.CrtYd) (width 0.05))
    (fp_arc (start 1.325 1.3) (end 1.725 1.3) (angle 90) (layer F.Fab) (width 0.15))
    (fp_arc (start 1.325 -1.3) (end 1.325 -1.7) (angle 90) (layer F.Fab) (width 0.15))
    (fp_arc (start 0.225 1.3) (end 0.225 1.7) (angle 90) (layer F.Fab) (width 0.15))
    (fp_arc (start 0.225 -1.3) (end -0.175 -1.3) (angle 89.9) (layer F.Fab) (width 0.15))
    (fp_line (start -0.175 1.3) (end -0.175 -1.3) (layer F.Fab) (width 0.15))
    (fp_line (start 1.325 1.7) (end 0.225 1.7) (layer F.Fab) (width 0.15))
    (fp_line (start 1.725 -1.3) (end 1.725 1.3) (layer F.Fab) (width 0.15))
    (fp_line (start 0.225 -1.7) (end 1.325 -1.7) (layer F.Fab) (width 0.15))
    (fp_line (start -2 2) (end -2 1.8) (layer F.SilkS) (width 0.15))
    (fp_line (start 2 1.8) (end 2 2) (layer F.SilkS) (width 0.15))
    (fp_line (start 2 -2) (end 2 -1.8) (layer F.SilkS) (width 0.15))
    (fp_line (start 2 2) (end -2 2) (layer F.SilkS) (width 0.15))
    (fp_line (start -2.2 -2) (end 2 -2) (layer F.SilkS) (width 0.15))
    (fp_line (start -1.975 -0.6) (end -0.6 -1.975) (layer F.Fab) (width 0.15))
    (fp_line (start -1.975 1.975) (end -1.975 -0.6) (layer F.Fab) (width 0.15))
    (fp_line (start 1.975 1.975) (end -1.975 1.975) (layer F.Fab) (width 0.15))
    (fp_line (start 1.975 -1.975) (end 1.975 1.975) (layer F.Fab) (width 0.15))
    (fp_line (start -0.6 -1.975) (end 1.975 -1.975) (layer F.Fab) (width 0.15))
    (pad 1 smd rect (at -1.775 -1.5) (size 0.8 0.35) (layers F.Cu F.Paste F.Mask)
      (net 2 /IR_R))
    (pad 5 smd rect (at -1.775 1.5) (size 0.8 0.35) (layers F.Cu F.Paste F.Mask)
      (net 1 +2V8))
    (pad 6 smd rect (at 1.775 1.5) (size 0.8 0.35) (layers F.Cu F.Paste F.Mask)
      (net 4 GND))
    (pad 8 smd rect (at 1.775 -1.5) (size 0.8 0.35) (layers F.Cu F.Paste F.Mask)
      (net 4 GND))
    (pad 2 smd rect (at -1.775 -0.75) (size 0.8 0.35) (layers F.Cu F.Mask)
      (net 9 "Net-(U2-Pad2)"))
    (pad 3 smd rect (at -1.775 0) (size 0.8 0.35) (layers F.Cu F.Mask)
      (net 10 "Net-(U2-Pad3)"))
    (pad 4 smd rect (at -1.775 0.75) (size 0.8 0.35) (layers F.Cu F.Mask)
      (net 11 "Net-(U2-Pad4)"))
    (pad 7 smd rect (at 1.775 0) (size 0.8 0.35) (layers F.Cu F.Mask)
      (net 12 "Net-(U2-Pad7)"))
  )

  (module bcan:TSOP572xx (layer F.Cu) (tedit 5A53FA29) (tstamp 58D177C2)
    (at 157.375 100 180)
    (path /58D6939D)
    (fp_text reference U3 (at 0 0 180) (layer F.SilkS)
      (effects (font (size 1 1) (thickness 0.15)))
    )
    (fp_text value TSOP57238 (at 0 3 180) (layer F.Fab)
      (effects (font (size 1 1) (thickness 0.15)))
    )
    (fp_line (start -2.4 2.2) (end -2.4 -2.2) (layer F.CrtYd) (width 0.05))
    (fp_line (start 2.4 2.2) (end -2.4 2.2) (layer F.CrtYd) (width 0.05))
    (fp_line (start 2.4 -2.2) (end 2.4 2.2) (layer F.CrtYd) (width 0.05))
    (fp_line (start -2.4 -2.2) (end 2.4 -2.2) (layer F.CrtYd) (width 0.05))
    (fp_arc (start 1.325 1.3) (end 1.725 1.3) (angle 90) (layer F.Fab) (width 0.15))
    (fp_arc (start 1.325 -1.3) (end 1.325 -1.7) (angle 90) (layer F.Fab) (width 0.15))
    (fp_arc (start 0.225 1.3) (end 0.225 1.7) (angle 90) (layer F.Fab) (width 0.15))
    (fp_arc (start 0.225 -1.3) (end -0.175 -1.3) (angle 89.9) (layer F.Fab) (width 0.15))
    (fp_line (start -0.175 1.3) (end -0.175 -1.3) (layer F.Fab) (width 0.15))
    (fp_line (start 1.325 1.7) (end 0.225 1.7) (layer F.Fab) (width 0.15))
    (fp_line (start 1.725 -1.3) (end 1.725 1.3) (layer F.Fab) (width 0.15))
    (fp_line (start 0.225 -1.7) (end 1.325 -1.7) (layer F.Fab) (width 0.15))
    (fp_line (start -2 2) (end -2 1.8) (layer F.SilkS) (width 0.15))
    (fp_line (start 2 1.8) (end 2 2) (layer F.SilkS) (width 0.15))
    (fp_line (start 2 -2) (end 2 -1.8) (layer F.SilkS) (width 0.15))
    (fp_line (start 2 2) (end -2 2) (layer F.SilkS) (width 0.15))
    (fp_line (start -2.2 -2) (end 2 -2) (layer F.SilkS) (width 0.15))
    (fp_line (start -1.975 -0.6) (end -0.6 -1.975) (layer F.Fab) (width 0.15))
    (fp_line (start -1.975 1.975) (end -1.975 -0.6) (layer F.Fab) (width 0.15))
    (fp_line (start 1.975 1.975) (end -1.975 1.975) (layer F.Fab) (width 0.15))
    (fp_line (start 1.975 -1.975) (end 1.975 1.975) (layer F.Fab) (width 0.15))
    (fp_line (start -0.6 -1.975) (end 1.975 -1.975) (layer F.Fab) (width 0.15))
    (pad 1 smd rect (at -1.775 -1.5 180) (size 0.8 0.35) (layers F.Cu F.Paste F.Mask)
      (net 3 /IR_L))
    (pad 5 smd rect (at -1.775 1.5 180) (size 0.8 0.35) (layers F.Cu F.Paste F.Mask)
      (net 1 +2V8))
    (pad 6 smd rect (at 1.775 1.5 180) (size 0.8 0.35) (layers F.Cu F.Paste F.Mask)
      (net 4 GND))
    (pad 8 smd rect (at 1.775 -1.5 180) (size 0.8 0.35) (layers F.Cu F.Paste F.Mask)
      (net 4 GND))
    (pad 2 smd rect (at -1.775 -0.75 180) (size 0.8 0.35) (layers F.Cu F.Mask)
      (net 61 "Net-(U3-Pad2)"))
    (pad 3 smd rect (at -1.775 0 180) (size 0.8 0.35) (layers F.Cu F.Mask)
      (net 62 "Net-(U3-Pad3)"))
    (pad 4 smd rect (at -1.775 0.75 180) (size 0.8 0.35) (layers F.Cu F.Mask)
      (net 63 "Net-(U3-Pad4)"))
    (pad 7 smd rect (at 1.775 0 180) (size 0.8 0.35) (layers F.Cu F.Mask)
      (net 64 "Net-(U3-Pad7)"))
  )

  (module Mounting_Holes:MountingHole_5mm (layer F.Cu) (tedit 58D19499) (tstamp 58D19ABD)
    (at 150 89.25)
    (descr "Mounting Hole 5mm, no annular")
    (tags "mounting hole 5mm no annular")
    (fp_text reference REF** (at 0 -6) (layer F.SilkS) hide
      (effects (font (size 1 1) (thickness 0.15)))
    )
    (fp_text value MountingHole_5mm (at 0 6) (layer F.Fab)
      (effects (font (size 1 1) (thickness 0.15)))
    )
    (fp_circle (center 0 0) (end 5 0) (layer Cmts.User) (width 0.15))
    (fp_circle (center 0 0) (end 5.25 0) (layer F.CrtYd) (width 0.05))
    (pad 1 np_thru_hole circle (at 0 0) (size 5 5) (drill 5) (layers *.Cu *.Mask))
  )

  (module Mounting_Holes:MountingHole_5mm (layer F.Cu) (tedit 58D194BA) (tstamp 58D19ACC)
    (at 150 110.75)
    (descr "Mounting Hole 5mm, no annular")
    (tags "mounting hole 5mm no annular")
    (fp_text reference REF** (at 0 -6) (layer F.SilkS) hide
      (effects (font (size 1 1) (thickness 0.15)))
    )
    (fp_text value MountingHole_5mm (at 0 6) (layer F.Fab)
      (effects (font (size 1 1) (thickness 0.15)))
    )
    (fp_circle (center 0 0) (end 5 0) (layer Cmts.User) (width 0.15))
    (fp_circle (center 0 0) (end 5.25 0) (layer F.CrtYd) (width 0.05))
    (pad 1 np_thru_hole circle (at 0 0) (size 5 5) (drill 5) (layers *.Cu *.Mask))
  )

  (module LEDs:LED_0603 (layer F.Cu) (tedit 57FE93A5) (tstamp 5A53FAB1)
    (at 150 93)
    (descr "LED 0603 smd package")
    (tags "LED led 0603 SMD smd SMT smt smdled SMDLED smtled SMTLED")
    (path /5A3F4EE8)
    (attr smd)
    (fp_text reference D1 (at 0 -1.25) (layer F.SilkS)
      (effects (font (size 1 1) (thickness 0.15)))
    )
    (fp_text value LED_Small (at 0 1.35) (layer F.Fab)
      (effects (font (size 1 1) (thickness 0.15)))
    )
    (fp_line (start -1.3 -0.5) (end -1.3 0.5) (layer F.SilkS) (width 0.12))
    (fp_line (start -0.2 -0.2) (end -0.2 0.2) (layer F.Fab) (width 0.1))
    (fp_line (start -0.15 0) (end 0.15 -0.2) (layer F.Fab) (width 0.1))
    (fp_line (start 0.15 0.2) (end -0.15 0) (layer F.Fab) (width 0.1))
    (fp_line (start 0.15 -0.2) (end 0.15 0.2) (layer F.Fab) (width 0.1))
    (fp_line (start 0.8 0.4) (end -0.8 0.4) (layer F.Fab) (width 0.1))
    (fp_line (start 0.8 -0.4) (end 0.8 0.4) (layer F.Fab) (width 0.1))
    (fp_line (start -0.8 -0.4) (end 0.8 -0.4) (layer F.Fab) (width 0.1))
    (fp_line (start -0.8 0.4) (end -0.8 -0.4) (layer F.Fab) (width 0.1))
    (fp_line (start -1.3 0.5) (end 0.8 0.5) (layer F.SilkS) (width 0.12))
    (fp_line (start -1.3 -0.5) (end 0.8 -0.5) (layer F.SilkS) (width 0.12))
    (fp_line (start 1.45 -0.65) (end 1.45 0.65) (layer F.CrtYd) (width 0.05))
    (fp_line (start 1.45 0.65) (end -1.45 0.65) (layer F.CrtYd) (width 0.05))
    (fp_line (start -1.45 0.65) (end -1.45 -0.65) (layer F.CrtYd) (width 0.05))
    (fp_line (start -1.45 -0.65) (end 1.45 -0.65) (layer F.CrtYd) (width 0.05))
    (pad 2 smd rect (at 0.8 0 180) (size 0.8 0.8) (layers F.Cu F.Paste F.Mask)
      (net 13 "Net-(D1-Pad2)"))
    (pad 1 smd rect (at -0.8 0 180) (size 0.8 0.8) (layers F.Cu F.Paste F.Mask)
      (net 14 "Net-(D1-Pad1)"))
    (model ${KISYS3DMOD}/LEDs.3dshapes/LED_0603.wrl
      (at (xyz 0 0 0))
      (scale (xyz 1 1 1))
      (rotate (xyz 0 0 180))
    )
  )

  (module LEDs:LED_0603 (layer F.Cu) (tedit 57FE93A5) (tstamp 5A53FAB7)
    (at 150 107)
    (descr "LED 0603 smd package")
    (tags "LED led 0603 SMD smd SMT smt smdled SMDLED smtled SMTLED")
    (path /5A3F5011)
    (attr smd)
    (fp_text reference D2 (at 0 -1.25) (layer F.SilkS)
      (effects (font (size 1 1) (thickness 0.15)))
    )
    (fp_text value LED_Small (at 0 1.35) (layer F.Fab)
      (effects (font (size 1 1) (thickness 0.15)))
    )
    (fp_line (start -1.3 -0.5) (end -1.3 0.5) (layer F.SilkS) (width 0.12))
    (fp_line (start -0.2 -0.2) (end -0.2 0.2) (layer F.Fab) (width 0.1))
    (fp_line (start -0.15 0) (end 0.15 -0.2) (layer F.Fab) (width 0.1))
    (fp_line (start 0.15 0.2) (end -0.15 0) (layer F.Fab) (width 0.1))
    (fp_line (start 0.15 -0.2) (end 0.15 0.2) (layer F.Fab) (width 0.1))
    (fp_line (start 0.8 0.4) (end -0.8 0.4) (layer F.Fab) (width 0.1))
    (fp_line (start 0.8 -0.4) (end 0.8 0.4) (layer F.Fab) (width 0.1))
    (fp_line (start -0.8 -0.4) (end 0.8 -0.4) (layer F.Fab) (width 0.1))
    (fp_line (start -0.8 0.4) (end -0.8 -0.4) (layer F.Fab) (width 0.1))
    (fp_line (start -1.3 0.5) (end 0.8 0.5) (layer F.SilkS) (width 0.12))
    (fp_line (start -1.3 -0.5) (end 0.8 -0.5) (layer F.SilkS) (width 0.12))
    (fp_line (start 1.45 -0.65) (end 1.45 0.65) (layer F.CrtYd) (width 0.05))
    (fp_line (start 1.45 0.65) (end -1.45 0.65) (layer F.CrtYd) (width 0.05))
    (fp_line (start -1.45 0.65) (end -1.45 -0.65) (layer F.CrtYd) (width 0.05))
    (fp_line (start -1.45 -0.65) (end 1.45 -0.65) (layer F.CrtYd) (width 0.05))
    (pad 2 smd rect (at 0.8 0 180) (size 0.8 0.8) (layers F.Cu F.Paste F.Mask)
      (net 15 "Net-(D2-Pad2)"))
    (pad 1 smd rect (at -0.8 0 180) (size 0.8 0.8) (layers F.Cu F.Paste F.Mask)
      (net 16 "Net-(D2-Pad1)"))
    (model ${KISYS3DMOD}/LEDs.3dshapes/LED_0603.wrl
      (at (xyz 0 0 0))
      (scale (xyz 1 1 1))
      (rotate (xyz 0 0 180))
    )
  )

  (module Housings_DFN_QFN:QFN-48-1EP_7x7mm_Pitch0.5mm (layer F.Cu) (tedit 54130A77) (tstamp 5A53FB0B)
    (at 150 100 135)
    (descr "UK Package; 48-Lead Plastic QFN (7mm x 7mm); (see Linear Technology QFN_48_05-08-1704.pdf)")
    (tags "QFN 0.5")
    (path /5A541DD0)
    (attr smd)
    (fp_text reference U1 (at 0 -4.75 135) (layer F.SilkS)
      (effects (font (size 1 1) (thickness 0.15)))
    )
    (fp_text value STM32L433CxTx/Ux (at 0 4.75 135) (layer F.Fab)
      (effects (font (size 1 1) (thickness 0.15)))
    )
    (fp_line (start -2.5 -3.5) (end 3.5 -3.5) (layer F.Fab) (width 0.15))
    (fp_line (start 3.5 -3.5) (end 3.5 3.5) (layer F.Fab) (width 0.15))
    (fp_line (start 3.5 3.5) (end -3.5 3.5) (layer F.Fab) (width 0.15))
    (fp_line (start -3.5 3.5) (end -3.5 -2.5) (layer F.Fab) (width 0.15))
    (fp_line (start -3.5 -2.5) (end -2.5 -3.5) (layer F.Fab) (width 0.15))
    (fp_line (start -4 -4) (end -4 4) (layer F.CrtYd) (width 0.05))
    (fp_line (start 4 -4) (end 4 4) (layer F.CrtYd) (width 0.05))
    (fp_line (start -4 -4) (end 4 -4) (layer F.CrtYd) (width 0.05))
    (fp_line (start -4 4) (end 4 4) (layer F.CrtYd) (width 0.05))
    (fp_line (start 3.625 -3.625) (end 3.625 -3.1) (layer F.SilkS) (width 0.15))
    (fp_line (start -3.625 3.625) (end -3.625 3.1) (layer F.SilkS) (width 0.15))
    (fp_line (start 3.625 3.625) (end 3.625 3.1) (layer F.SilkS) (width 0.15))
    (fp_line (start -3.625 -3.625) (end -3.1 -3.625) (layer F.SilkS) (width 0.15))
    (fp_line (start -3.625 3.625) (end -3.1 3.625) (layer F.SilkS) (width 0.15))
    (fp_line (start 3.625 3.625) (end 3.1 3.625) (layer F.SilkS) (width 0.15))
    (fp_line (start 3.625 -3.625) (end 3.1 -3.625) (layer F.SilkS) (width 0.15))
    (pad 1 smd rect (at -3.4 -2.75 135) (size 0.7 0.25) (layers F.Cu F.Paste F.Mask)
      (net 17 "Net-(U1-Pad1)"))
    (pad 2 smd rect (at -3.4 -2.25 135) (size 0.7 0.25) (layers F.Cu F.Paste F.Mask)
      (net 5 "Net-(U1-Pad2)"))
    (pad 3 smd rect (at -3.4 -1.75 135) (size 0.7 0.25) (layers F.Cu F.Paste F.Mask)
      (net 6 "Net-(U1-Pad3)"))
    (pad 4 smd rect (at -3.4 -1.25 135) (size 0.7 0.25) (layers F.Cu F.Paste F.Mask)
      (net 7 "Net-(U1-Pad4)"))
    (pad 5 smd rect (at -3.4 -0.75 135) (size 0.7 0.25) (layers F.Cu F.Paste F.Mask)
      (net 18 "Net-(U1-Pad5)"))
    (pad 6 smd rect (at -3.4 -0.25 135) (size 0.7 0.25) (layers F.Cu F.Paste F.Mask)
      (net 19 "Net-(U1-Pad6)"))
    (pad 7 smd rect (at -3.4 0.25 135) (size 0.7 0.25) (layers F.Cu F.Paste F.Mask)
      (net 8 "Net-(U1-Pad7)"))
    (pad 8 smd rect (at -3.4 0.75 135) (size 0.7 0.25) (layers F.Cu F.Paste F.Mask)
      (net 20 "Net-(U1-Pad8)"))
    (pad 9 smd rect (at -3.4 1.25 135) (size 0.7 0.25) (layers F.Cu F.Paste F.Mask)
      (net 21 "Net-(U1-Pad9)"))
    (pad 10 smd rect (at -3.4 1.75 135) (size 0.7 0.25) (layers F.Cu F.Paste F.Mask)
      (net 22 "Net-(U1-Pad10)"))
    (pad 11 smd rect (at -3.4 2.25 135) (size 0.7 0.25) (layers F.Cu F.Paste F.Mask)
      (net 23 "Net-(U1-Pad11)"))
    (pad 12 smd rect (at -3.4 2.75 135) (size 0.7 0.25) (layers F.Cu F.Paste F.Mask)
      (net 24 "Net-(U1-Pad12)"))
    (pad 13 smd rect (at -2.75 3.4 225) (size 0.7 0.25) (layers F.Cu F.Paste F.Mask)
      (net 25 "Net-(U1-Pad13)"))
    (pad 14 smd rect (at -2.25 3.4 225) (size 0.7 0.25) (layers F.Cu F.Paste F.Mask)
      (net 26 "Net-(U1-Pad14)"))
    (pad 15 smd rect (at -1.75 3.4 225) (size 0.7 0.25) (layers F.Cu F.Paste F.Mask)
      (net 27 "Net-(U1-Pad15)"))
    (pad 16 smd rect (at -1.25 3.4 225) (size 0.7 0.25) (layers F.Cu F.Paste F.Mask)
      (net 28 "Net-(U1-Pad16)"))
    (pad 17 smd rect (at -0.75 3.4 225) (size 0.7 0.25) (layers F.Cu F.Paste F.Mask)
      (net 29 "Net-(U1-Pad17)"))
    (pad 18 smd rect (at -0.25 3.4 225) (size 0.7 0.25) (layers F.Cu F.Paste F.Mask)
      (net 30 "Net-(U1-Pad18)"))
    (pad 19 smd rect (at 0.25 3.4 225) (size 0.7 0.25) (layers F.Cu F.Paste F.Mask)
      (net 31 "Net-(U1-Pad19)"))
    (pad 20 smd rect (at 0.75 3.4 225) (size 0.7 0.25) (layers F.Cu F.Paste F.Mask)
      (net 32 "Net-(U1-Pad20)"))
    (pad 21 smd rect (at 1.25 3.4 225) (size 0.7 0.25) (layers F.Cu F.Paste F.Mask)
      (net 33 "Net-(U1-Pad21)"))
    (pad 22 smd rect (at 1.75 3.4 225) (size 0.7 0.25) (layers F.Cu F.Paste F.Mask)
      (net 34 "Net-(U1-Pad22)"))
    (pad 23 smd rect (at 2.25 3.4 225) (size 0.7 0.25) (layers F.Cu F.Paste F.Mask)
      (net 35 "Net-(U1-Pad23)"))
    (pad 24 smd rect (at 2.75 3.4 225) (size 0.7 0.25) (layers F.Cu F.Paste F.Mask)
      (net 36 "Net-(U1-Pad24)"))
    (pad 25 smd rect (at 3.4 2.75 135) (size 0.7 0.25) (layers F.Cu F.Paste F.Mask)
      (net 37 "Net-(U1-Pad25)"))
    (pad 26 smd rect (at 3.4 2.25 135) (size 0.7 0.25) (layers F.Cu F.Paste F.Mask)
      (net 38 "Net-(U1-Pad26)"))
    (pad 27 smd rect (at 3.4 1.75 135) (size 0.7 0.25) (layers F.Cu F.Paste F.Mask)
      (net 39 "Net-(U1-Pad27)"))
    (pad 28 smd rect (at 3.4 1.25 135) (size 0.7 0.25) (layers F.Cu F.Paste F.Mask)
      (net 40 "Net-(U1-Pad28)"))
    (pad 29 smd rect (at 3.4 0.75 135) (size 0.7 0.25) (layers F.Cu F.Paste F.Mask)
      (net 41 "Net-(U1-Pad29)"))
    (pad 30 smd rect (at 3.4 0.25 135) (size 0.7 0.25) (layers F.Cu F.Paste F.Mask)
      (net 42 "Net-(U1-Pad30)"))
    (pad 31 smd rect (at 3.4 -0.25 135) (size 0.7 0.25) (layers F.Cu F.Paste F.Mask)
      (net 43 "Net-(U1-Pad31)"))
    (pad 32 smd rect (at 3.4 -0.75 135) (size 0.7 0.25) (layers F.Cu F.Paste F.Mask)
      (net 44 "Net-(U1-Pad32)"))
    (pad 33 smd rect (at 3.4 -1.25 135) (size 0.7 0.25) (layers F.Cu F.Paste F.Mask)
      (net 45 "Net-(U1-Pad33)"))
    (pad 34 smd rect (at 3.4 -1.75 135) (size 0.7 0.25) (layers F.Cu F.Paste F.Mask)
      (net 46 "Net-(U1-Pad34)"))
    (pad 35 smd rect (at 3.4 -2.25 135) (size 0.7 0.25) (layers F.Cu F.Paste F.Mask)
      (net 47 "Net-(U1-Pad35)"))
    (pad 36 smd rect (at 3.4 -2.75 135) (size 0.7 0.25) (layers F.Cu F.Paste F.Mask)
      (net 48 "Net-(U1-Pad36)"))
    (pad 37 smd rect (at 2.75 -3.4 225) (size 0.7 0.25) (layers F.Cu F.Paste F.Mask)
      (net 49 "Net-(U1-Pad37)"))
    (pad 38 smd rect (at 2.25 -3.4 225) (size 0.7 0.25) (layers F.Cu F.Paste F.Mask)
      (net 50 "Net-(U1-Pad38)"))
    (pad 39 smd rect (at 1.75 -3.4 225) (size 0.7 0.25) (layers F.Cu F.Paste F.Mask)
      (net 51 "Net-(U1-Pad39)"))
    (pad 40 smd rect (at 1.25 -3.4 225) (size 0.7 0.25) (layers F.Cu F.Paste F.Mask)
      (net 52 "Net-(U1-Pad40)"))
    (pad 41 smd rect (at 0.75 -3.4 225) (size 0.7 0.25) (layers F.Cu F.Paste F.Mask)
      (net 53 "Net-(U1-Pad41)"))
    (pad 42 smd rect (at 0.25 -3.4 225) (size 0.7 0.25) (layers F.Cu F.Paste F.Mask)
      (net 54 "Net-(U1-Pad42)"))
    (pad 43 smd rect (at -0.25 -3.4 225) (size 0.7 0.25) (layers F.Cu F.Paste F.Mask)
      (net 55 "Net-(U1-Pad43)"))
    (pad 44 smd rect (at -0.75 -3.4 225) (size 0.7 0.25) (layers F.Cu F.Paste F.Mask)
      (net 56 "Net-(U1-Pad44)"))
    (pad 45 smd rect (at -1.25 -3.4 225) (size 0.7 0.25) (layers F.Cu F.Paste F.Mask)
      (net 57 "Net-(U1-Pad45)"))
    (pad 46 smd rect (at -1.75 -3.4 225) (size 0.7 0.25) (layers F.Cu F.Paste F.Mask)
      (net 58 "Net-(U1-Pad46)"))
    (pad 47 smd rect (at -2.25 -3.4 225) (size 0.7 0.25) (layers F.Cu F.Paste F.Mask)
      (net 59 "Net-(U1-Pad47)"))
    (pad 48 smd rect (at -2.75 -3.4 225) (size 0.7 0.25) (layers F.Cu F.Paste F.Mask)
      (net 60 "Net-(U1-Pad48)"))
    (pad 49 smd rect (at 1.93125 1.93125 135) (size 1.2875 1.2875) (layers F.Cu F.Paste F.Mask)
      (solder_paste_margin_ratio -0.2))
    (pad 49 smd rect (at 1.93125 0.64375 135) (size 1.2875 1.2875) (layers F.Cu F.Paste F.Mask)
      (solder_paste_margin_ratio -0.2))
    (pad 49 smd rect (at 1.93125 -0.64375 135) (size 1.2875 1.2875) (layers F.Cu F.Paste F.Mask)
      (solder_paste_margin_ratio -0.2))
    (pad 49 smd rect (at 1.93125 -1.93125 135) (size 1.2875 1.2875) (layers F.Cu F.Paste F.Mask)
      (solder_paste_margin_ratio -0.2))
    (pad 49 smd rect (at 0.64375 1.93125 135) (size 1.2875 1.2875) (layers F.Cu F.Paste F.Mask)
      (solder_paste_margin_ratio -0.2))
    (pad 49 smd rect (at 0.64375 0.64375 135) (size 1.2875 1.2875) (layers F.Cu F.Paste F.Mask)
      (solder_paste_margin_ratio -0.2))
    (pad 49 smd rect (at 0.64375 -0.64375 135) (size 1.2875 1.2875) (layers F.Cu F.Paste F.Mask)
      (solder_paste_margin_ratio -0.2))
    (pad 49 smd rect (at 0.64375 -1.93125 135) (size 1.2875 1.2875) (layers F.Cu F.Paste F.Mask)
      (solder_paste_margin_ratio -0.2))
    (pad 49 smd rect (at -0.64375 1.93125 135) (size 1.2875 1.2875) (layers F.Cu F.Paste F.Mask)
      (solder_paste_margin_ratio -0.2))
    (pad 49 smd rect (at -0.64375 0.64375 135) (size 1.2875 1.2875) (layers F.Cu F.Paste F.Mask)
      (solder_paste_margin_ratio -0.2))
    (pad 49 smd rect (at -0.64375 -0.64375 135) (size 1.2875 1.2875) (layers F.Cu F.Paste F.Mask)
      (solder_paste_margin_ratio -0.2))
    (pad 49 smd rect (at -0.64375 -1.93125 135) (size 1.2875 1.2875) (layers F.Cu F.Paste F.Mask)
      (solder_paste_margin_ratio -0.2))
    (pad 49 smd rect (at -1.93125 1.93125 135) (size 1.2875 1.2875) (layers F.Cu F.Paste F.Mask)
      (solder_paste_margin_ratio -0.2))
    (pad 49 smd rect (at -1.93125 0.64375 135) (size 1.2875 1.2875) (layers F.Cu F.Paste F.Mask)
      (solder_paste_margin_ratio -0.2))
    (pad 49 smd rect (at -1.93125 -0.64375 135) (size 1.2875 1.2875) (layers F.Cu F.Paste F.Mask)
      (solder_paste_margin_ratio -0.2))
    (pad 49 smd rect (at -1.93125 -1.93125 135) (size 1.2875 1.2875) (layers F.Cu F.Paste F.Mask)
      (solder_paste_margin_ratio -0.2))
    (model ${KISYS3DMOD}/Housings_DFN_QFN.3dshapes/QFN-48-1EP_7x7mm_Pitch0.5mm.wrl
      (at (xyz 0 0 0))
      (scale (xyz 1 1 1))
      (rotate (xyz 0 0 0))
    )
  )

  (gr_text JST-GH (at 150 101.5) (layer F.SilkS)
    (effects (font (size 1 1) (thickness 0.2)))
  )
  (gr_text REAR (at 150 114.5) (layer F.SilkS)
    (effects (font (size 1.5 1.5) (thickness 0.3)))
  )
  (gr_text FRONT (at 150 85.5) (layer F.SilkS)
    (effects (font (size 1.5 1.5) (thickness 0.3)))
  )
  (gr_text bcan.io (at 159 96.5) (layer B.SilkS)
    (effects (font (size 2.5 2.5) (thickness 0.3)) (justify left mirror))
  )
  (gr_text L (at 157.5 96.5) (layer F.SilkS)
    (effects (font (size 1.5 1.5) (thickness 0.3)))
  )
  (gr_text R (at 142.5 96.5) (layer F.SilkS)
    (effects (font (size 1.5 1.5) (thickness 0.3)))
  )
  (gr_arc (start 158 86) (end 158 84) (angle 90) (layer Edge.Cuts) (width 0.15))
  (gr_arc (start 158 114) (end 160 114) (angle 90) (layer Edge.Cuts) (width 0.15))
  (gr_arc (start 142 114) (end 142 116) (angle 90) (layer Edge.Cuts) (width 0.15))
  (gr_arc (start 142 86) (end 140 86) (angle 90) (layer Edge.Cuts) (width 0.15))
  (gr_line (start 140 114) (end 140 86) (layer Edge.Cuts) (width 0.15))
  (gr_line (start 158 116) (end 142 116) (layer Edge.Cuts) (width 0.15))
  (gr_line (start 160 86) (end 160 114) (layer Edge.Cuts) (width 0.15))
  (gr_line (start 142 84) (end 158 84) (layer Edge.Cuts) (width 0.15))

  (zone (net 4) (net_name GND) (layer F.Cu) (tstamp 0) (hatch edge 0.508)
    (connect_pads (clearance 0.25))
    (min_thickness 0.25)
    (fill (arc_segments 16) (thermal_gap 0.508) (thermal_bridge_width 0.508) (smoothing fillet) (radius 2))
    (polygon
      (pts
        (xy 140 84) (xy 160 84) (xy 160 116) (xy 140 116)
      )
    )
  )
  (zone (net 4) (net_name GND) (layer B.Cu) (tstamp 58D17F5E) (hatch edge 0.508)
    (connect_pads (clearance 0.25))
    (min_thickness 0.25)
    (fill (arc_segments 16) (thermal_gap 0.508) (thermal_bridge_width 0.508) (smoothing fillet) (radius 2))
    (polygon
      (pts
        (xy 140 84) (xy 160 84) (xy 160 116) (xy 140 116)
      )
    )
  )
  (zone (net 0) (net_name "") (layer F.SilkS) (tstamp 0) (hatch edge 0.508)
    (connect_pads (clearance 0.25))
    (min_thickness 0.25)
    (fill (arc_segments 16) (thermal_gap 0.508) (thermal_bridge_width 0.508))
    (polygon
      (pts
        (xy 155 115) (xy 155 108.5) (xy 153.25 108.5) (xy 156.25 103.5) (xy 159.25 108.5)
        (xy 157.5 108.5) (xy 157.5 115)
      )
    )
  )
  (zone (net 0) (net_name "") (layer B.SilkS) (tstamp 0) (hatch edge 0.508)
    (connect_pads (clearance 0.25))
    (min_thickness 0.25)
    (fill (arc_segments 16) (thermal_gap 0.508) (thermal_bridge_width 0.508) (smoothing fillet) (radius 2))
    (polygon
      (pts
        (xy 159 106.5) (xy 159 115) (xy 141 115) (xy 141 106.5)
      )
    )
  )
  (zone (net 0) (net_name "") (layer B.SilkS) (tstamp 58D18A11) (hatch edge 0.508)
    (connect_pads (clearance 0.25))
    (min_thickness 0.25)
    (fill (arc_segments 16) (thermal_gap 0.508) (thermal_bridge_width 0.508) (smoothing fillet) (radius 2))
    (polygon
      (pts
        (xy 159.028497 85) (xy 159.028497 93.5) (xy 141.028497 93.5) (xy 141.028497 85)
      )
    )
  )
)
